<svg fill="none" height="45" viewBox="0 0 44 45" width="44" xmlns="http://www.w3.org/2000/svg">
    <path clip-rule="evenodd"
          d="M0.198139 16.9441C0.67408 10.5492 0.91205 7.35179 4.12143 4.14242C7.3308 0.933041 10.5283 0.695072 16.9231 0.219133C18.5809 0.0957578 20.2909 0.0209961 22.0009 0.0209961C23.7109 0.0209961 25.4209 0.0957591 27.0786 0.219135C33.4735 0.695076 36.671 0.933047 39.8804 4.14242C43.0897 7.3518 43.3277 10.5492 43.8036 16.9441C43.927 18.6019 44.0018 20.3119 44.0018 22.0219C44.0018 23.7319 43.927 25.4419 43.8036 27.0996C43.3277 33.4945 43.0897 36.692 39.8804 39.9014C36.671 43.1107 33.4735 43.3487 27.0786 43.8246C25.4209 43.948 23.7109 44.0228 22.0009 44.0228C20.2909 44.0228 18.5809 43.948 16.9231 43.8246C10.5282 43.3487 7.33079 43.1107 4.12142 39.9014C0.912045 36.692 0.674075 33.4945 0.198137 27.0996C0.0747617 25.4419 0 23.7319 0 22.0219C0 20.3119 0.074763 18.6019 0.198139 16.9441ZM11.2114 14.498L8.03015 14.498C7.12124 14.498 6.93945 14.9387 6.93945 15.416C6.93945 16.2605 8.03015 20.4832 11.9567 26.0644C14.5925 29.8648 18.3009 31.9394 21.6639 31.9394C23.6817 31.9394 23.9362 31.4804 23.9362 30.6909V27.8085C23.9362 26.8906 24.118 26.707 24.7724 26.707C25.245 26.707 26.0449 26.9456 27.9354 28.7816C28.5822 29.4347 29.0664 29.9796 29.4601 30.4225C30.3832 31.4612 30.8082 31.9394 31.662 31.9394H34.8432C35.7521 31.9394 36.2066 31.4804 35.9339 30.5808C35.6612 29.6628 34.6251 28.3777 33.2617 26.8171C32.8824 26.3478 32.3942 25.8685 31.9675 25.4496C31.5763 25.0655 31.2368 24.7322 31.0803 24.5039C30.6077 23.8796 30.7167 23.6043 31.0803 23.0718C31.0803 23.0718 34.9523 17.564 35.3522 15.673C35.5522 14.9937 35.3522 14.498 34.3888 14.498L31.2075 14.498C30.91 14.4801 30.6147 14.5597 30.3658 14.7252C30.1168 14.8906 29.9274 15.133 29.826 15.416C29.826 15.416 28.1899 19.3816 25.9176 21.9703C25.1723 22.723 24.8269 22.9617 24.427 22.9617C24.2452 22.9617 23.9362 22.723 23.9362 22.0437L23.9362 15.673C23.9362 14.8652 23.6999 14.498 23.0273 14.498L18.0282 14.498C17.5192 14.498 17.2102 14.8652 17.2102 15.2324C17.2102 15.5263 17.3793 15.7349 17.5946 16.0005C17.944 16.4316 18.4152 17.0129 18.4827 18.3535V23.0902C18.4827 24.1367 18.3009 24.3203 17.901 24.3203C16.8103 24.3203 14.1926 20.3179 12.6293 15.7465C12.3384 14.8652 12.0294 14.498 11.2114 14.498Z"
          fill="#BBC1C7" fill-rule="evenodd"></path>
</svg>
